{
  "implemented": true,
  "name": "Crobat",
  "nationalPokedexNumber": 169,
  "primaryType": "poison",
  "secondaryType": "flying",
  "abilities": [
    "innerfocus",
    "h:infiltrator"
  ],
  "baseStats": {
    "hp": 85,
    "attack": 90,
    "defence": 80,
    "special_attack": 70,
    "special_defence": 80,
    "speed": 130
  },
  "catchRate": 90,
  "maleRatio": 0.5,
  "shoulderMountable": false,
  "baseExperienceYield": 268,
  "experienceGroup": "medium_fast",
  "eggCycles": 15,
  "eggGroups": [
    "flying"
  ],
  "behaviour": {
    "moving": {
      "swim": {
        "canWalkOnWater": true
      },
      "fly": {
        "canFly": true
      }
    }
  },
  "moves": [
    "1:absorb",
    "1:astonish",
    "1:meanlook",
    "1:screech",
    "1:supersonic",
    "1:tailwind",
    "1:toxic",
    "13:wingattack",
    "15:poisonfang",
    "20:quickguard",
    "27:aircutter",
    "34:bite",
    "41:haze",
    "48:venoshock",
    "55:confuseray",
    "62:airslash",
    "69:leechlife",
    "tm:acrobatics",
    "tm:aerialace",
    "tm:agility",
    "tm:airslash",
    "tm:assurance",
    "tm:attract",
    "tm:bravebird",
    "tm:captivate",
    "tm:confide",
    "tm:crosspoison",
    "tm:crunch",
    "tm:darkpulse",
    "tm:doubleteam",
    "tm:endure",
    "tm:facade",
    "tm:fly",
    "tm:frustration",
    "tm:gigadrain",
    "tm:gigaimpact",
    "tm:heatwave",
    "tm:hex",
    "tm:hiddenpower",
    "tm:hurricane",
    "tm:hyperbeam",
    "tm:leechlife",
    "tm:nastyplot",
    "tm:naturalgift",
    "tm:payback",
    "tm:pluck",
    "tm:protect",
    "tm:raindance",
    "tm:rest",
    "tm:return",
    "tm:roost",
    "tm:round",
    "tm:screech",
    "tm:secretpower",
    "tm:shadowball",
    "tm:sleeptalk",
    "tm:sludgebomb",
    "tm:snore",
    "tm:steelwing",
    "tm:substitute",
    "tm:sunnyday",
    "tm:swagger",
    "tm:swift",
    "tm:taunt",
    "tm:thief",
    "tm:torment",
    "tm:uproar",
    "tm:uturn",
    "tm:venomdrench",
    "tm:venoshock",
    "tm:xscissor",
    "tm:zenheadbutt",
    "tutor:curse",
    "tutor:defog",
    "tutor:detect",
    "tutor:doubleedge",
    "tutor:doubleteam",
    "tutor:dualwingbeat",
    "tutor:frustration",
    "tutor:hiddenpower",
    "tutor:mimic",
    "tutor:ominouswind",
    "tutor:return",
    "tutor:skyattack",
    "tutor:snatch",
    "tutor:superfang",
    "tutor:swagger",
    "tutor:twister",
    "tutor:wingattack"
  ],
  "labels": [
    "gen2"
  ],
  "pokedex": [
    "cobblemon.species.crobat.desc"
  ],
  "preEvolution": "golbat",
  "evolutions": [],
  "baseScale": 1.5,
  "hitbox": {
    "width": 1,
    "height": 1,
    "fixed": false
  },
  "baseFriendship": 50,
  "evYield": {
    "hp": 0,
    "attack": 0,
    "defence": 0,
    "special_attack": 0,
    "special_defence": 0,
    "speed": 3
  },
  "height": 18,
  "weight": 750,
  "aspects": [],
  "cannotDynamax": false
}