{
  "name": "Jellicent",
  "nationalPokedexNumber": 593,
  "primaryType": "water",
  "secondaryType": "ghost",
  "abilities": [
    "waterabsorb",
    "cursedbody",
    "h:damp"
  ],
  "baseStats": {
    "hp": 100,
    "attack": 60,
    "defence": 70,
    "special_attack": 85,
    "special_defence": 105,
    "speed": 60
  },
  "catchRate": 60,
  "maleRatio": 0.5,
  "shoulderMountable": false,
  "baseExperienceYield": 168,
  "experienceGroup": "medium_fast",
  "eggCycles": 20,
  "eggGroups": [
    "amorphous"
  ],
  "moves": [
    "1:absorb",
    "1:acidarmor",
    "1:bubble",
    "1:nightshade",
    "1:poisonsting",
    "1:watergun",
    "1:watersport",
    "1:wringout",
    "12:waterpulse",
    "13:bubblebeam",
    "16:raindance",
    "20:hex",
    "24:brine",
    "27:ominouswind",
    "28:recover",
    "32:shadowball",
    "36:whirlpool",
    "43:hydropump",
    "48:destinybond",
    "54:waterspout",
    "tm:attract",
    "tm:blizzard",
    "tm:brine",
    "tm:confide",
    "tm:darkpulse",
    "tm:dazzlinggleam",
    "tm:dive",
    "tm:doubleteam",
    "tm:dreameater",
    "tm:endure",
    "tm:energyball",
    "tm:facade",
    "tm:flash",
    "tm:frustration",
    "tm:gigadrain",
    "tm:gigaimpact",
    "tm:hail",
    "tm:hex",
    "tm:hiddenpower",
    "tm:hydropump",
    "tm:hyperbeam",
    "tm:icebeam",
    "tm:icywind",
    "tm:imprison",
    "tm:muddywater",
    "tm:protect",
    "tm:psychic",
    "tm:psychup",
    "tm:raindance",
    "tm:rest",
    "tm:return",
    "tm:round",
    "tm:safeguard",
    "tm:scald",
    "tm:secretpower",
    "tm:shadowball",
    "tm:sleeptalk",
    "tm:sludgebomb",
    "tm:sludgewave",
    "tm:snore",
    "tm:substitute",
    "tm:surf",
    "tm:swagger",
    "tm:taunt",
    "tm:toxic",
    "tm:trick",
    "tm:trickroom",
    "tm:waterfall",
    "tm:whirlpool",
    "tm:willowisp",
    "tutor:bind",
    "tutor:magiccoat",
    "tutor:painsplit",
    "tutor:poltergeist",
    "tutor:shockwave",
    "tutor:spite"
  ],
  "labels": [
    "gen5"
  ],
  "pokedex": [
    "cobblemon.species.jellicent.desc"
  ],
  "preEvolution": "frillish",
  "evolutions": [],
  "baseScale": 1,
  "hitbox": {
    "width": 1,
    "height": 1,
    "fixed": false
  },
  "baseFriendship": 50,
  "evYield": {
    "hp": 0,
    "attack": 0,
    "defence": 0,
    "special_attack": 0,
    "special_defence": 2,
    "speed": 0
  },
  "height": 22,
  "weight": 1350,
  "aspects": [],
  "cannotDynamax": false
}