{
	"format_version": "1.12.0",
	"minecraft:geometry": [
		{
			"description": {
				"identifier": "geometry.elekid",
				"texture_width": 64,
				"texture_height": 64,
				"visible_bounds_width": 3,
				"visible_bounds_height": 2.5,
				"visible_bounds_offset": [0, 0.75, 0]
			},
			"bones": [
				{
					"name": "elekid",
					"pivot": [0, 0, 0]
				},
				{
					"name": "body",
					"parent": "elekid",
					"pivot": [0, 6.5, 0]
				},
				{
					"name": "torso",
					"parent": "body",
					"pivot": [0, 2.58333, 0],
					"cubes": [
						{"origin": [2.25, 11.5, -2.5], "size": [0, 7, 5], "pivot": [2.25, 15, 0], "rotation": [0, 0, 2.5], "uv": [24, 11]},
						{"origin": [-3.5, 2.5, -3.5], "size": [7, 9, 7], "uv": [0, 0]},
						{"origin": [-2.25, 11.5, -2.5], "size": [0, 7, 5], "pivot": [-2.25, 15, 0], "rotation": [0, 0, -2.5], "uv": [18, 19]}
					]
				},
				{
					"name": "mouth_closed",
					"parent": "torso",
					"pivot": [0, 0, 0],
					"cubes": [
						{"origin": [-1, 6.75, -3.5], "size": [2, 1, 0], "inflate": 0.02, "uv": [33, 12]}
					]
				},
				{
					"name": "mouth_open",
					"parent": "mouth_closed",
					"pivot": [0, 6.75, -2],
					"cubes": [
						{"origin": [-1, 5.75, -2.5], "size": [2, 2, 1], "inflate": 0.03, "uv": [28, 12]}
					]
				},
				{
					"name": "eye_left",
					"parent": "torso",
					"pivot": [1.82923, 8.84442, -3.5],
					"cubes": [
						{"origin": [0.82923, 8.34442, -3.5], "size": [2, 1, 0], "inflate": 0.02, "pivot": [1.82923, 8.84442, -3.5], "rotation": [0, 0, -15], "uv": [32, 14], "mirror": true}
					]
				},
				{
					"name": "eyelid_left",
					"parent": "eye_left",
					"pivot": [1.82923, 8.84442, -2],
					"cubes": [
						{"origin": [0.82923, 8.34442, -2.5], "size": [2, 1, 1], "inflate": 0.03, "pivot": [1.82923, 8.84442, -2.5], "rotation": [0, 0, -15], "uv": [12, 18], "mirror": true}
					]
				},
				{
					"name": "eye_right",
					"parent": "torso",
					"pivot": [0, 8.84442, -3.5],
					"cubes": [
						{"origin": [-2.82923, 8.34442, -3.5], "size": [2, 1, 0], "inflate": 0.02, "pivot": [-1.82923, 8.84442, -3.5], "rotation": [0, 0, 15], "uv": [32, 14]}
					]
				},
				{
					"name": "eyelid_right",
					"parent": "eye_right",
					"pivot": [-1.82923, 8.84442, -2],
					"cubes": [
						{"origin": [-2.82923, 8.34442, -2.5], "size": [2, 1, 1], "inflate": 0.03, "pivot": [-1.82923, 8.84442, -2.5], "rotation": [0, 0, 15], "uv": [12, 20]}
					]
				},
				{
					"name": "leftarm",
					"parent": "torso",
					"pivot": [3.5, 8.5, 0],
					"cubes": [
						{"origin": [2.5, 6.5, -0.5], "size": [5, 2, 1], "uv": [28, 6]}
					]
				},
				{
					"name": "lefthand",
					"parent": "leftarm",
					"pivot": [6.5, 7.5, 0.5],
					"cubes": [
						{"origin": [6.5, 6.25, -1.5], "size": [6, 3, 3], "uv": [21, 0]},
						{"origin": [12.5, 9, -0.5], "size": [1, 0, 1], "inflate": 0.02, "pivot": [12.5, 9, 0], "rotation": [0, 0, 10], "uv": [33, 13], "mirror": true},
						{"origin": [12.5, 7.5, -1.75], "size": [1, 0, 1], "inflate": 0.02, "pivot": [13, 7.5, -1.25], "rotation": [-80, 0, 0], "uv": [33, 13], "mirror": true},
						{"origin": [12.5, 7.5, 0.75], "size": [1, 0, 1], "inflate": 0.02, "pivot": [13, 7.5, 1.25], "rotation": [-100, 0, 0], "uv": [33, 13], "mirror": true}
					]
				},
				{
					"name": "rightarm",
					"parent": "torso",
					"pivot": [-3.5, 8.5, 0],
					"cubes": [
						{"origin": [-7.5, 6.5, -0.5], "size": [5, 2, 1], "uv": [28, 9]}
					]
				},
				{
					"name": "righthand",
					"parent": "rightarm",
					"pivot": [-6.5, 7.5, 0.5],
					"cubes": [
						{"origin": [-12.5, 6.25, -1.5], "size": [6, 3, 3], "uv": [0, 24]},
						{"origin": [-13.5, 9, -0.5], "size": [1, 0, 1], "inflate": 0.02, "pivot": [-12.5, 9, 0], "rotation": [0, 0, -10], "uv": [33, 13]},
						{"origin": [-13.5, 7.5, -1.75], "size": [1, 0, 1], "inflate": 0.02, "pivot": [-13, 7.5, -1.25], "rotation": [-80, 0, 0], "uv": [33, 13]},
						{"origin": [-13.5, 7.5, 0.75], "size": [1, 0, 1], "inflate": 0.02, "pivot": [-13, 7.5, 1.25], "rotation": [-100, 0, 0], "uv": [33, 13]}
					]
				},
				{
					"name": "rightleg",
					"parent": "body",
					"pivot": [-2, 2, 0],
					"cubes": [
						{"origin": [-2.5, 0.75, -1], "size": [1, 2, 2], "uv": [0, 16]}
					]
				},
				{
					"name": "rightfoot",
					"parent": "rightleg",
					"pivot": [-2, 1, 0],
					"cubes": [
						{"origin": [-3.5, 0, -4], "size": [3, 1, 6], "uv": [12, 17]}
					]
				},
				{
					"name": "leftleg",
					"parent": "body",
					"pivot": [2, 2, 0],
					"cubes": [
						{"origin": [1.5, 0.75, -1], "size": [1, 2, 2], "uv": [0, 0]}
					]
				},
				{
					"name": "leftfoot",
					"parent": "leftleg",
					"pivot": [2, 1, 0],
					"cubes": [
						{"origin": [0.5, 0, -4], "size": [3, 1, 6], "uv": [0, 16]}
					]
				}
			]
		}
	]
}