{
  "name": "Bewear",
  "nationalPokedexNumber": 760,
  "primaryType": "normal",
  "secondaryType": "fighting",
  "abilities": [
    "fluffy",
    "klutz",
    "h:unnerve"
  ],
  "baseStats": {
    "hp": 120,
    "attack": 125,
    "defence": 80,
    "special_attack": 55,
    "special_defence": 60,
    "speed": 60
  },
  "catchRate": 70,
  "maleRatio": 0.5,
  "shoulderMountable": false,
  "baseExperienceYield": 175,
  "experienceGroup": "medium_fast",
  "eggCycles": 15,
  "eggGroups": [
    "field"
  ],
  "moves": [
    "1:babydolleyes",
    "1:leer",
    "1:payback",
    "1:tackle",
    "5:bide",
    "12:brutalswing",
    "16:endure",
    "20:strength",
    "24:takedown",
    "30:flail",
    "36:hammerarm",
    "42:thrash",
    "48:painsplit",
    "54:doubleedge",
    "60:superpower",
    "tm:aerialace",
    "tm:attract",
    "tm:bodypress",
    "tm:bodyslam",
    "tm:brickbreak",
    "tm:brutalswing",
    "tm:bulkup",
    "tm:bulldoze",
    "tm:charm",
    "tm:closecombat",
    "tm:confide",
    "tm:darkestlariat",
    "tm:doubleteam",
    "tm:dragonclaw",
    "tm:drainpunch",
    "tm:earthquake",
    "tm:endure",
    "tm:facade",
    "tm:fling",
    "tm:focusblast",
    "tm:frustration",
    "tm:gigaimpact",
    "tm:hiddenpower",
    "tm:highhorsepower",
    "tm:hyperbeam",
    "tm:icepunch",
    "tm:ironhead",
    "tm:lowkick",
    "tm:lowsweep",
    "tm:megakick",
    "tm:megapunch",
    "tm:payback",
    "tm:protect",
    "tm:rest",
    "tm:return",
    "tm:revenge",
    "tm:reversal",
    "tm:roar",
    "tm:rockslide",
    "tm:rocktomb",
    "tm:round",
    "tm:shadowclaw",
    "tm:sleeptalk",
    "tm:snore",
    "tm:stompingtantrum",
    "tm:substitute",
    "tm:superpower",
    "tm:swagger",
    "tm:swordsdance",
    "tm:taunt",
    "tm:thunderpunch",
    "tm:toxic",
    "tm:workup",
    "tm:zenheadbutt",
    "tutor:coaching",
    "tutor:dualchop",
    "tutor:focuspunch",
    "tutor:roleplay"
  ],
  "labels": [
    "gen7"
  ],
  "pokedex": [
    "cobblemon.species.bewear.desc"
  ],
  "preEvolution": "stufful",
  "evolutions": [],
  "baseScale": 1,
  "hitbox": {
    "width": 1,
    "height": 1,
    "fixed": false
  },
  "baseFriendship": 50,
  "evYield": {
    "hp": 0,
    "attack": 2,
    "defence": 0,
    "special_attack": 0,
    "special_defence": 0,
    "speed": 0
  },
  "height": 21,
  "weight": 1350,
  "aspects": [],
  "cannotDynamax": false
}