{
  "name": "Fomantis",
  "nationalPokedexNumber": 753,
  "primaryType": "grass",
  "abilities": [
    "leafguard",
    "h:contrary"
  ],
  "baseStats": {
    "hp": 40,
    "attack": 55,
    "defence": 35,
    "special_attack": 50,
    "special_defence": 35,
    "speed": 35
  },
  "catchRate": 190,
  "maleRatio": 0.5,
  "shoulderMountable": false,
  "baseExperienceYield": 50,
  "experienceGroup": "medium_fast",
  "eggCycles": 20,
  "eggGroups": [
    "grass"
  ],
  "moves": [
    "1:furycutter",
    "1:leafage",
    "5:growth",
    "10:ingrain",
    "15:razorleaf",
    "20:sweetscent",
    "25:slash",
    "30:xscissor",
    "35:synthesis",
    "40:leafblade",
    "45:sunnyday",
    "50:solarbeam",
    "egg:aromatherapy",
    "egg:defog",
    "egg:worryseed",
    "tm:attract",
    "tm:bulletseed",
    "tm:confide",
    "tm:doubleteam",
    "tm:endure",
    "tm:energyball",
    "tm:facade",
    "tm:falseswipe",
    "tm:fling",
    "tm:frustration",
    "tm:gigadrain",
    "tm:grassknot",
    "tm:grassyterrain",
    "tm:hiddenpower",
    "tm:leafstorm",
    "tm:leechlife",
    "tm:magicalleaf",
    "tm:naturepower",
    "tm:payback",
    "tm:poisonjab",
    "tm:protect",
    "tm:rest",
    "tm:return",
    "tm:round",
    "tm:safeguard",
    "tm:seedbomb",
    "tm:sleeptalk",
    "tm:snore",
    "tm:solarbeam",
    "tm:substitute",
    "tm:sunnyday",
    "tm:swagger",
    "tm:swordsdance",
    "tm:takedown",
    "tm:terablast",
    "tm:toxic",
    "tm:trailblaze",
    "tm:weatherball",
    "tm:xscissor",
    "tutor:bugbite",
    "tutor:dualchop",
    "tutor:grassyglide",
    "tutor:signalbeam"
  ],
  "labels": [
    "gen7"
  ],
  "pokedex": [
    "cobblemon.species.fomantis.desc"
  ],
  "evolutions": [
    {
      "id": "fomantis_lurantis",
      "variant": "level_up",
      "result": "lurantis",
      "consumeHeldItem": false,
      "learnableMoves": [
        "petalblizzard"
      ],
      "requirements": [
        {
          "variant": "level",
          "minLevel": 34
        },
        {
          "variant": "time_range",
          "range": "day"
        }
      ]
    }
  ],
  "baseScale": 1,
  "hitbox": {
    "width": 1,
    "height": 1,
    "fixed": false
  },
  "baseFriendship": 50,
  "evYield": {
    "hp": 0,
    "attack": 1,
    "defence": 0,
    "special_attack": 0,
    "special_defence": 0,
    "speed": 0
  },
  "height": 3,
  "weight": 15,
  "aspects": [],
  "cannotDynamax": false
}