{
  "name": "Enamorus",
  "nationalPokedexNumber": 905,
  "primaryType": "fairy",
  "secondaryType": "flying",
  "abilities": [
    "cutecharm",
    "h:contrary"
  ],
  "baseStats": {
    "hp": 74,
    "attack": 115,
    "defence": 70,
    "special_attack": 135,
    "special_defence": 80,
    "speed": 106
  },
  "catchRate": 3,
  "maleRatio": 0,
  "shoulderMountable": false,
  "baseExperienceYield": 0,
  "baseFriendship": 0,
  "evYield": {
    "hp": 0,
    "attack": 0,
    "defence": 0,
    "special_attack": 3,
    "special_defence": 0,
    "speed": 0
  },
  "experienceGroup": "slow",
  "eggCycles": 0,
  "eggGroups": [
    "undiscovered"
  ],
  "moves": [
    "1:astonish",
    "1:fairywind",
    "5:torment",
    "10:flatter",
    "15:twister",
    "20:drainingkiss",
    "25:irondefense",
    "30:imprison",
    "35:mysticalfire",
    "40:dazzlinggleam",
    "45:extrasensory",
    "50:uproar",
    "55:superpower",
    "60:healingwish",
    "65:moonblast",
    "70:outrage",
    "75:springtidestorm",
    "tm:agility",
    "tm:bodyslam",
    "tm:calmmind",
    "tm:dazzlinggleam",
    "tm:disarmingvoice",
    "tm:drainingkiss",
    "tm:earthpower",
    "tm:endure",
    "tm:facade",
    "tm:fly",
    "tm:focusblast",
    "tm:gigaimpact",
    "tm:grassknot",
    "tm:grassyterrain",
    "tm:hyperbeam",
    "tm:imprison",
    "tm:irondefense",
    "tm:ironhead",
    "tm:mistyterrain",
    "tm:outrage",
    "tm:playrough",
    "tm:protect",
    "tm:psychic",
    "tm:raindance",
    "tm:rest",
    "tm:scaryface",
    "tm:sleeptalk",
    "tm:sludgebomb",
    "tm:substitute",
    "tm:sunnyday",
    "tm:tailwind",
    "tm:takedown",
    "tm:taunt",
    "tm:terablast",
    "tm:zenheadbutt"
  ],
  "labels": [
    "gen8",
    "legendary"
  ],
  "pokedex": [
    "cobblemon.species.enamorus.desc"
  ],
  "height": 16,
  "weight": 480,
  "evolutions": [],
  "forms": [
    {
      "name": "Therian",
      "primaryType": "fairy",
      "secondaryType": "flying",
      "abilities": [
        "overcoat"
      ],
      "baseStats": {
        "hp": 74,
        "attack": 115,
        "defence": 110,
        "special_attack": 135,
        "special_defence": 100,
        "speed": 46
      },
      "catchRate": 3,
      "maleRatio": 0,
      "baseExperienceYield": 0,
      "baseFriendship": 0,
      "evYield": {
        "hp": 0,
        "attack": 3,
        "defence": 0,
        "special_attack": 0,
        "special_defence": 0,
        "speed": 0
      },
      "experienceGroup": "slow",
      "eggCycles": 0,
      "eggGroups": [
        "undiscovered"
      ],
      "moves": [
        "1:astonish",
        "1:fairywind",
        "5:torment",
        "10:flatter",
        "15:twister",
        "20:drainingkiss",
        "25:irondefense",
        "30:imprison",
        "35:mysticalfire",
        "40:dazzlinggleam",
        "45:extrasensory",
        "50:uproar",
        "55:superpower",
        "60:healingwish",
        "65:moonblast",
        "70:outrage",
        "75:springtidestorm",
        "tm:agility",
        "tm:bodyslam",
        "tm:calmmind",
        "tm:dazzlinggleam",
        "tm:disarmingvoice",
        "tm:drainingkiss",
        "tm:earthpower",
        "tm:endure",
        "tm:facade",
        "tm:fly",
        "tm:focusblast",
        "tm:gigaimpact",
        "tm:grassknot",
        "tm:grassyterrain",
        "tm:hyperbeam",
        "tm:imprison",
        "tm:irondefense",
        "tm:ironhead",
        "tm:mistyterrain",
        "tm:outrage",
        "tm:playrough",
        "tm:protect",
        "tm:psychic",
        "tm:raindance",
        "tm:rest",
        "tm:scaryface",
        "tm:sleeptalk",
        "tm:sludgebomb",
        "tm:substitute",
        "tm:sunnyday",
        "tm:tailwind",
        "tm:takedown",
        "tm:taunt",
        "tm:terablast",
        "tm:zenheadbutt"
      ],
      "labels": [
        "gen8",
        "legendary"
      ],
      "aspects": [
        "therian"
      ],
      "height": 16,
      "weight": 480,
      "evolutions": [],
      "cannotDynamax": false,
      "battleOnly": false
    }
  ],
  "aspects": [],
  "cannotDynamax": false
}