{
  "implemented": true,
  "name": "Milcery",
  "nationalPokedexNumber": 868,
  "primaryType": "fairy",
  "abilities": [
    "sweetveil",
    "h:aromaveil"
  ],
  "baseStats": {
    "hp": 45,
    "attack": 40,
    "defence": 40,
    "special_attack": 50,
    "special_defence": 61,
    "speed": 34
  },
  "catchRate": 200,
  "maleRatio": 0,
  "shoulderMountable": true,
  "baseExperienceYield": 54,
  "experienceGroup": "medium_fast",
  "eggCycles": 20,
  "eggGroups": [
    "fairy",
    "amorphous"
  ],
  "drops": {
    "amount": "1",
    "entries": [
      {
        "item": "minecraft:sugar",
		"quantityRange": "1-2",
        "percentage": 66
      }
    ]
  },
  "moves": [
    "1:aromaticmist",
    "1:tackle",
    "5:sweetkiss",
    "10:sweetscent",
    "15:drainingkiss",
    "20:aromatherapy",
    "25:attract",
    "30:acidarmor",
    "35:dazzlinggleam",
    "40:recover",
    "45:mistyterrain",
    "50:entrainment",
    "egg:babydolleyes",
    "egg:lastresort",
    "tm:attract",
    "tm:charm",
    "tm:dazzlinggleam",
    "tm:drainingkiss",
    "tm:endure",
    "tm:facade",
    "tm:fling",
    "tm:helpinghand",
    "tm:mistyterrain",
    "tm:protect",
    "tm:rest",
    "tm:round",
    "tm:sleeptalk",
    "tm:snore",
    "tm:storedpower",
    "tm:substitute",
    "tutor:attract",
    "tutor:celebrate",
    "tutor:entrainment",
    "tutor:lastresort"
  ],
  "labels": [
    "gen8"
  ],
  "pokedex": [
    "cobblemon.species.milcery.desc"
  ],
  "evolutions": [
    {
      "id": "milcery_alcremie_strawberry_shiny",
      "variant": "level_up",
      "result": "alcremie s decoration=strawberry",
      "consumeHeldItem": true,
      "learnableMoves": [
        "decorate"
      ],
      "requirements": [
        {
          "variant": "properties",
          "target": "shiny"
        },
        {
          "variant": "level",
          "minLevel": 1
        },
        {
          "variant": "held_item",
          "itemCondition": "cobblemon:strawberry_sweet"
        }
      ]
    },
    {
      "id": "milcery_alcremie_strawberry_caramelswirl",
      "variant": "level_up",
      "result": "alcremie decoration=strawberry cream=caramel_swirl",
      "consumeHeldItem": false,
      "learnableMoves": [
        "decorate"
      ],
      "requirements": [
        {
          "variant": "level",
          "minLevel": 1
        },
        {
          "variant": "held_item",
          "itemCondition": "cobblemon:strawberry_sweet"
        },
        {
          "variant": "time_range",
          "range": "day"
        }
      ]
    },
    {
      "id": "milcery_alcremie_strawberry_lemon",
      "variant": "level_up",
      "result": "alcremie decoration=strawberry cream=lemon",
      "consumeHeldItem": false,
      "learnableMoves": [
        "decorate"
      ],
      "requirements": [
        {
          "variant": "level",
          "minLevel": 1
        },
        {
          "variant": "held_item",
          "itemCondition": "cobblemon:strawberry_sweet"
        },
        {
          "variant": "time_range",
          "range": "night"
        }
      ]
    },
    {
      "id": "milcery_alcremie_strawberry_matcha",
      "variant": "level_up",
      "result": "alcremie decoration=strawberry cream=matcha",
      "consumeHeldItem": false,
      "learnableMoves": [
        "decorate"
      ],
      "requirements": [
        {
          "variant": "level",
          "minLevel": 1
        },
        {
          "variant": "held_item",
          "itemCondition": "cobblemon:strawberry_sweet"
        },
        {
          "variant": "time_range",
          "range": "night"
        }
      ]
    },
    {
      "id": "milcery_alcremie_strawberry_mint",
      "variant": "level_up",
      "result": "alcremie decoration=strawberry cream=mint",
      "consumeHeldItem": false,
      "learnableMoves": [
        "decorate"
      ],
      "requirements": [
        {
          "variant": "level",
          "minLevel": 1
        },
        {
          "variant": "held_item",
          "itemCondition": "cobblemon:strawberry_sweet"
        },
        {
          "variant": "time_range",
          "range": "night"
        }
      ]
    },
    {
      "id": "milcery_alcremie_strawberry_rainbowswirl",
      "variant": "level_up",
      "result": "alcremie decoration=strawberry cream=rainbow_swirl",
      "consumeHeldItem": true,
      "learnableMoves": [
        "decorate"
      ],
      "requirements": [
        {
          "variant": "level",
          "minLevel": 1
        },
        {
          "variant": "held_item",
          "itemCondition": "cobblemon:strawberry_sweet"
        },
        {
          "variant": "time_range",
          "range": "dusk"
        }
      ]
    },
    {
      "id": "milcery_alcremie_strawberry_ruby",
      "variant": "level_up",
      "result": "alcremie decoration=strawberry cream=ruby",
      "consumeHeldItem": false,
      "learnableMoves": [
        "decorate"
      ],
      "requirements": [
        {
          "variant": "level",
          "minLevel": 1
        },
        {
          "variant": "held_item",
          "itemCondition": "cobblemon:strawberry_sweet"
        },
        {
          "variant": "time_range",
          "range": "day"
        }
      ]
    },
    {
      "id": "milcery_alcremie_strawberry_rubyswirl",
      "variant": "level_up",
      "result": "alcremie decoration=strawberry cream=ruby_swirl",
      "consumeHeldItem": false,
      "learnableMoves": [
        "decorate"
      ],
      "requirements": [
        {
          "variant": "level",
          "minLevel": 1
        },
        {
          "variant": "held_item",
          "itemCondition": "cobblemon:strawberry_sweet"
        },
        {
          "variant": "time_range",
          "range": "day"
        }
      ]
    },
    {
      "id": "milcery_alcremie_strawberry_salted",
      "variant": "level_up",
      "result": "alcremie decoration=strawberry cream=salted",
      "consumeHeldItem": true,
      "learnableMoves": [
        "decorate"
      ],
      "requirements": [
        {
          "variant": "level",
          "minLevel": 1
        },
        {
          "variant": "held_item",
          "itemCondition": "cobblemon:strawberry_sweet"
        },
        {
          "variant": "time_range",
          "range": "night"
        }
      ]
    },
    {
      "id": "milcery_alcremie_strawberry_vanilla",
      "variant": "level_up",
      "result": "alcremie decoration=strawberry cream=vanilla",
      "consumeHeldItem": true,
      "learnableMoves": [
        "decorate"
      ],
      "requirements": [
        {
          "variant": "level",
          "minLevel": 1
        },
        {
          "variant": "held_item",
          "itemCondition": "cobblemon:strawberry_sweet"
        },
        {
          "variant": "time_range",
          "range": "day"
        }
      ]
    },
    {
      "id": "milcery_alcremie_love_shiny",
      "variant": "level_up",
      "result": "alcremie s decoration=love",
      "consumeHeldItem": true,
      "learnableMoves": [
        "decorate"
      ],
      "requirements": [
        {
          "variant": "properties",
          "target": "shiny"
        },
        {
          "variant": "level",
          "minLevel": 1
        },
        {
          "variant": "held_item",
          "itemCondition": "cobblemon:love_sweet"
        }
      ]
    },
    {
      "id": "milcery_alcremie_love_caramelswirl",
      "variant": "level_up",
      "result": "alcremie decoration=love cream=caramel_swirl",
      "consumeHeldItem": false,
      "learnableMoves": [
        "decorate"
      ],
      "requirements": [
        {
          "variant": "level",
          "minLevel": 1
        },
        {
          "variant": "held_item",
          "itemCondition": "cobblemon:love_sweet"
        },
        {
          "variant": "time_range",
          "range": "day"
        }
      ]
    },
    {
      "id": "milcery_alcremie_love_lemon",
      "variant": "level_up",
      "result": "alcremie decoration=love cream=lemon",
      "consumeHeldItem": false,
      "learnableMoves": [
        "decorate"
      ],
      "requirements": [
        {
          "variant": "level",
          "minLevel": 1
        },
        {
          "variant": "held_item",
          "itemCondition": "cobblemon:love_sweet"
        },
        {
          "variant": "time_range",
          "range": "night"
        }
      ]
    },
    {
      "id": "milcery_alcremie_love_matcha",
      "variant": "level_up",
      "result": "alcremie decoration=love cream=matcha",
      "consumeHeldItem": false,
      "learnableMoves": [
        "decorate"
      ],
      "requirements": [
        {
          "variant": "level",
          "minLevel": 1
        },
        {
          "variant": "held_item",
          "itemCondition": "cobblemon:love_sweet"
        },
        {
          "variant": "time_range",
          "range": "night"
        }
      ]
    },
    {
      "id": "milcery_alcremie_love_mint",
      "variant": "level_up",
      "result": "alcremie decoration=love cream=mint",
      "consumeHeldItem": false,
      "learnableMoves": [
        "decorate"
      ],
      "requirements": [
        {
          "variant": "level",
          "minLevel": 1
        },
        {
          "variant": "held_item",
          "itemCondition": "cobblemon:love_sweet"
        },
        {
          "variant": "time_range",
          "range": "night"
        }
      ]
    },
    {
      "id": "milcery_alcremie_love_rainbowswirl",
      "variant": "level_up",
      "result": "alcremie decoration=love cream=rainbow_swirl",
      "consumeHeldItem": true,
      "learnableMoves": [
        "decorate"
      ],
      "requirements": [
        {
          "variant": "level",
          "minLevel": 1
        },
        {
          "variant": "held_item",
          "itemCondition": "cobblemon:love_sweet"
        },
        {
          "variant": "time_range",
          "range": "dusk"
        }
      ]
    },
    {
      "id": "milcery_alcremie_love_ruby",
      "variant": "level_up",
      "result": "alcremie decoration=love cream=ruby",
      "consumeHeldItem": false,
      "learnableMoves": [
        "decorate"
      ],
      "requirements": [
        {
          "variant": "level",
          "minLevel": 1
        },
        {
          "variant": "held_item",
          "itemCondition": "cobblemon:love_sweet"
        },
        {
          "variant": "time_range",
          "range": "day"
        }
      ]
    },
    {
      "id": "milcery_alcremie_love_rubyswirl",
      "variant": "level_up",
      "result": "alcremie decoration=love cream=ruby_swirl",
      "consumeHeldItem": false,
      "learnableMoves": [
        "decorate"
      ],
      "requirements": [
        {
          "variant": "level",
          "minLevel": 1
        },
        {
          "variant": "held_item",
          "itemCondition": "cobblemon:love_sweet"
        },
        {
          "variant": "time_range",
          "range": "day"
        }
      ]
    },
    {
      "id": "milcery_alcremie_love_salted",
      "variant": "level_up",
      "result": "alcremie decoration=love cream=salted",
      "consumeHeldItem": true,
      "learnableMoves": [
        "decorate"
      ],
      "requirements": [
        {
          "variant": "level",
          "minLevel": 1
        },
        {
          "variant": "held_item",
          "itemCondition": "cobblemon:love_sweet"
        },
        {
          "variant": "time_range",
          "range": "night"
        }
      ]
    },
    {
      "id": "milcery_alcremie_love_vanilla",
      "variant": "level_up",
      "result": "alcremie decoration=love cream=vanilla",
      "consumeHeldItem": true,
      "learnableMoves": [
        "decorate"
      ],
      "requirements": [
        {
          "variant": "level",
          "minLevel": 1
        },
        {
          "variant": "held_item",
          "itemCondition": "cobblemon:love_sweet"
        },
        {
          "variant": "time_range",
          "range": "day"
        }
      ]
    },
    {
      "id": "milcery_alcremie_berry_shiny",
      "variant": "level_up",
      "result": "alcremie s decoration=berry",
      "consumeHeldItem": true,
      "learnableMoves": [
        "decorate"
      ],
      "requirements": [
        {
          "variant": "properties",
          "target": "shiny"
        },
        {
          "variant": "level",
          "minLevel": 1
        },
        {
          "variant": "held_item",
          "itemCondition": "cobblemon:berry_sweet"
        }
      ]
    },
    {
      "id": "milcery_alcremie_berry_caramelswirl",
      "variant": "level_up",
      "result": "alcremie decoration=berry cream=caramel_swirl",
      "consumeHeldItem": false,
      "learnableMoves": [
        "decorate"
      ],
      "requirements": [
        {
          "variant": "level",
          "minLevel": 1
        },
        {
          "variant": "held_item",
          "itemCondition": "cobblemon:berry_sweet"
        },
        {
          "variant": "time_range",
          "range": "day"
        }
      ]
    },
    {
      "id": "milcery_alcremie_berry_lemon",
      "variant": "level_up",
      "result": "alcremie decoration=berry cream=lemon",
      "consumeHeldItem": false,
      "learnableMoves": [
        "decorate"
      ],
      "requirements": [
        {
          "variant": "level",
          "minLevel": 1
        },
        {
          "variant": "held_item",
          "itemCondition": "cobblemon:berry_sweet"
        },
        {
          "variant": "time_range",
          "range": "night"
        }
      ]
    },
    {
      "id": "milcery_alcremie_berry_matcha",
      "variant": "level_up",
      "result": "alcremie decoration=berry cream=matcha",
      "consumeHeldItem": false,
      "learnableMoves": [
        "decorate"
      ],
      "requirements": [
        {
          "variant": "level",
          "minLevel": 1
        },
        {
          "variant": "held_item",
          "itemCondition": "cobblemon:berry_sweet"
        },
        {
          "variant": "time_range",
          "range": "night"
        }
      ]
    },
    {
      "id": "milcery_alcremie_berry_mint",
      "variant": "level_up",
      "result": "alcremie decoration=berry cream=mint",
      "consumeHeldItem": false,
      "learnableMoves": [
        "decorate"
      ],
      "requirements": [
        {
          "variant": "level",
          "minLevel": 1
        },
        {
          "variant": "held_item",
          "itemCondition": "cobblemon:berry_sweet"
        },
        {
          "variant": "time_range",
          "range": "night"
        }
      ]
    },
    {
      "id": "milcery_alcremie_berry_rainbowswirl",
      "variant": "level_up",
      "result": "alcremie decoration=berry cream=rainbow_swirl",
      "consumeHeldItem": true,
      "learnableMoves": [
        "decorate"
      ],
      "requirements": [
        {
          "variant": "level",
          "minLevel": 1
        },
        {
          "variant": "held_item",
          "itemCondition": "cobblemon:berry_sweet"
        },
        {
          "variant": "time_range",
          "range": "dusk"
        }
      ]
    },
    {
      "id": "milcery_alcremie_berry_ruby",
      "variant": "level_up",
      "result": "alcremie decoration=berry cream=ruby",
      "consumeHeldItem": false,
      "learnableMoves": [
        "decorate"
      ],
      "requirements": [
        {
          "variant": "level",
          "minLevel": 1
        },
        {
          "variant": "held_item",
          "itemCondition": "cobblemon:berry_sweet"
        },
        {
          "variant": "time_range",
          "range": "day"
        }
      ]
    },
    {
      "id": "milcery_alcremie_berry_rubyswirl",
      "variant": "level_up",
      "result": "alcremie decoration=berry cream=ruby_swirl",
      "consumeHeldItem": false,
      "learnableMoves": [
        "decorate"
      ],
      "requirements": [
        {
          "variant": "level",
          "minLevel": 1
        },
        {
          "variant": "held_item",
          "itemCondition": "cobblemon:berry_sweet"
        },
        {
          "variant": "time_range",
          "range": "day"
        }
      ]
    },
    {
      "id": "milcery_alcremie_berry_salted",
      "variant": "level_up",
      "result": "alcremie decoration=berry cream=salted",
      "consumeHeldItem": true,
      "learnableMoves": [
        "decorate"
      ],
      "requirements": [
        {
          "variant": "level",
          "minLevel": 1
        },
        {
          "variant": "held_item",
          "itemCondition": "cobblemon:berry_sweet"
        },
        {
          "variant": "time_range",
          "range": "night"
        }
      ]
    },
    {
      "id": "milcery_alcremie_berry_vanilla",
      "variant": "level_up",
      "result": "alcremie decoration=berry cream=vanilla",
      "consumeHeldItem": true,
      "learnableMoves": [
        "decorate"
      ],
      "requirements": [
        {
          "variant": "level",
          "minLevel": 1
        },
        {
          "variant": "held_item",
          "itemCondition": "cobblemon:berry_sweet"
        },
        {
          "variant": "time_range",
          "range": "day"
        }
      ]
    },
    {
      "id": "milcery_alcremie_clover_shiny",
      "variant": "level_up",
      "result": "alcremie s decoration=clover",
      "consumeHeldItem": true,
      "learnableMoves": [
        "decorate"
      ],
      "requirements": [
        {
          "variant": "properties",
          "target": "shiny"
        },
        {
          "variant": "level",
          "minLevel": 1
        },
        {
          "variant": "held_item",
          "itemCondition": "cobblemon:clover_sweet"
        }
      ]
    },
    {
      "id": "milcery_alcremie_clover_caramelswirl",
      "variant": "level_up",
      "result": "alcremie decoration=clover cream=caramel_swirl",
      "consumeHeldItem": false,
      "learnableMoves": [
        "decorate"
      ],
      "requirements": [
        {
          "variant": "level",
          "minLevel": 1
        },
        {
          "variant": "held_item",
          "itemCondition": "cobblemon:clover_sweet"
        },
        {
          "variant": "time_range",
          "range": "day"
        }
      ]
    },
    {
      "id": "milcery_alcremie_clover_lemon",
      "variant": "level_up",
      "result": "alcremie decoration=clover cream=lemon",
      "consumeHeldItem": false,
      "learnableMoves": [
        "decorate"
      ],
      "requirements": [
        {
          "variant": "level",
          "minLevel": 1
        },
        {
          "variant": "held_item",
          "itemCondition": "cobblemon:clover_sweet"
        },
        {
          "variant": "time_range",
          "range": "night"
        }
      ]
    },
    {
      "id": "milcery_alcremie_clover_matcha",
      "variant": "level_up",
      "result": "alcremie decoration=clover cream=matcha",
      "consumeHeldItem": false,
      "learnableMoves": [
        "decorate"
      ],
      "requirements": [
        {
          "variant": "level",
          "minLevel": 1
        },
        {
          "variant": "held_item",
          "itemCondition": "cobblemon:clover_sweet"
        },
        {
          "variant": "time_range",
          "range": "night"
        }
      ]
    },
    {
      "id": "milcery_alcremie_clover_mint",
      "variant": "level_up",
      "result": "alcremie decoration=clover cream=mint",
      "consumeHeldItem": false,
      "learnableMoves": [
        "decorate"
      ],
      "requirements": [
        {
          "variant": "level",
          "minLevel": 1
        },
        {
          "variant": "held_item",
          "itemCondition": "cobblemon:clover_sweet"
        },
        {
          "variant": "time_range",
          "range": "night"
        }
      ]
    },
    {
      "id": "milcery_alcremie_clover_rainbowswirl",
      "variant": "level_up",
      "result": "alcremie decoration=clover cream=rainbow_swirl",
      "consumeHeldItem": true,
      "learnableMoves": [
        "decorate"
      ],
      "requirements": [
        {
          "variant": "level",
          "minLevel": 1
        },
        {
          "variant": "held_item",
          "itemCondition": "cobblemon:clover_sweet"
        },
        {
          "variant": "time_range",
          "range": "dusk"
        }
      ]
    },
    {
      "id": "milcery_alcremie_clover_ruby",
      "variant": "level_up",
      "result": "alcremie decoration=clover cream=ruby",
      "consumeHeldItem": false,
      "learnableMoves": [
        "decorate"
      ],
      "requirements": [
        {
          "variant": "level",
          "minLevel": 1
        },
        {
          "variant": "held_item",
          "itemCondition": "cobblemon:clover_sweet"
        },
        {
          "variant": "time_range",
          "range": "day"
        }
      ]
    },
    {
      "id": "milcery_alcremie_clover_rubyswirl",
      "variant": "level_up",
      "result": "alcremie decoration=clover cream=ruby_swirl",
      "consumeHeldItem": false,
      "learnableMoves": [
        "decorate"
      ],
      "requirements": [
        {
          "variant": "level",
          "minLevel": 1
        },
        {
          "variant": "held_item",
          "itemCondition": "cobblemon:clover_sweet"
        },
        {
          "variant": "time_range",
          "range": "day"
        }
      ]
    },
    {
      "id": "milcery_alcremie_clover_salted",
      "variant": "level_up",
      "result": "alcremie decoration=clover cream=salted",
      "consumeHeldItem": true,
      "learnableMoves": [
        "decorate"
      ],
      "requirements": [
        {
          "variant": "level",
          "minLevel": 1
        },
        {
          "variant": "held_item",
          "itemCondition": "cobblemon:clover_sweet"
        },
        {
          "variant": "time_range",
          "range": "night"
        }
      ]
    },
    {
      "id": "milcery_alcremie_clover_vanilla",
      "variant": "level_up",
      "result": "alcremie decoration=clover cream=vanilla",
      "consumeHeldItem": true,
      "learnableMoves": [
        "decorate"
      ],
      "requirements": [
        {
          "variant": "level",
          "minLevel": 1
        },
        {
          "variant": "held_item",
          "itemCondition": "cobblemon:clover_sweet"
        },
        {
          "variant": "time_range",
          "range": "day"
        }
      ]
    },
    {
      "id": "milcery_alcremie_flower_shiny",
      "variant": "level_up",
      "result": "alcremie s decoration=flower",
      "consumeHeldItem": true,
      "learnableMoves": [
        "decorate"
      ],
      "requirements": [
        {
          "variant": "properties",
          "target": "shiny"
        },
        {
          "variant": "level",
          "minLevel": 1
        },
        {
          "variant": "held_item",
          "itemCondition": "cobblemon:flower_sweet"
        }
      ]
    },
    {
      "id": "milcery_alcremie_flower_caramelswirl",
      "variant": "level_up",
      "result": "alcremie decoration=flower cream=caramel_swirl",
      "consumeHeldItem": false,
      "learnableMoves": [
        "decorate"
      ],
      "requirements": [
        {
          "variant": "level",
          "minLevel": 1
        },
        {
          "variant": "held_item",
          "itemCondition": "cobblemon:flower_sweet"
        },
        {
          "variant": "time_range",
          "range": "day"
        }
      ]
    },
    {
      "id": "milcery_alcremie_flower_lemon",
      "variant": "level_up",
      "result": "alcremie decoration=flower cream=lemon",
      "consumeHeldItem": false,
      "learnableMoves": [
        "decorate"
      ],
      "requirements": [
        {
          "variant": "level",
          "minLevel": 1
        },
        {
          "variant": "held_item",
          "itemCondition": "cobblemon:flower_sweet"
        },
        {
          "variant": "time_range",
          "range": "night"
        }
      ]
    },
    {
      "id": "milcery_alcremie_flower_matcha",
      "variant": "level_up",
      "result": "alcremie decoration=flower cream=matcha",
      "consumeHeldItem": false,
      "learnableMoves": [
        "decorate"
      ],
      "requirements": [
        {
          "variant": "level",
          "minLevel": 1
        },
        {
          "variant": "held_item",
          "itemCondition": "cobblemon:flower_sweet"
        },
        {
          "variant": "time_range",
          "range": "night"
        }
      ]
    },
    {
      "id": "milcery_alcremie_flower_mint",
      "variant": "level_up",
      "result": "alcremie decoration=flower cream=mint",
      "consumeHeldItem": false,
      "learnableMoves": [
        "decorate"
      ],
      "requirements": [
        {
          "variant": "level",
          "minLevel": 1
        },
        {
          "variant": "held_item",
          "itemCondition": "cobblemon:flower_sweet"
        },
        {
          "variant": "time_range",
          "range": "night"
        }
      ]
    },
    {
      "id": "milcery_alcremie_flower_rainbowswirl",
      "variant": "level_up",
      "result": "alcremie decoration=flower cream=rainbow_swirl",
      "consumeHeldItem": true,
      "learnableMoves": [
        "decorate"
      ],
      "requirements": [
        {
          "variant": "level",
          "minLevel": 1
        },
        {
          "variant": "held_item",
          "itemCondition": "cobblemon:flower_sweet"
        },
        {
          "variant": "time_range",
          "range": "dusk"
        }
      ]
    },
    {
      "id": "milcery_alcremie_flower_ruby",
      "variant": "level_up",
      "result": "alcremie decoration=flower cream=ruby",
      "consumeHeldItem": false,
      "learnableMoves": [
        "decorate"
      ],
      "requirements": [
        {
          "variant": "level",
          "minLevel": 1
        },
        {
          "variant": "held_item",
          "itemCondition": "cobblemon:flower_sweet"
        },
        {
          "variant": "time_range",
          "range": "day"
        }
      ]
    },
    {
      "id": "milcery_alcremie_flower_rubyswirl",
      "variant": "level_up",
      "result": "alcremie decoration=flower cream=ruby_swirl",
      "consumeHeldItem": false,
      "learnableMoves": [
        "decorate"
      ],
      "requirements": [
        {
          "variant": "level",
          "minLevel": 1
        },
        {
          "variant": "held_item",
          "itemCondition": "cobblemon:flower_sweet"
        },
        {
          "variant": "time_range",
          "range": "day"
        }
      ]
    },
    {
      "id": "milcery_alcremie_flower_salted",
      "variant": "level_up",
      "result": "alcremie decoration=flower cream=salted",
      "consumeHeldItem": true,
      "learnableMoves": [
        "decorate"
      ],
      "requirements": [
        {
          "variant": "level",
          "minLevel": 1
        },
        {
          "variant": "held_item",
          "itemCondition": "cobblemon:flower_sweet"
        },
        {
          "variant": "time_range",
          "range": "night"
        }
      ]
    },
    {
      "id": "milcery_alcremie_flower_vanilla",
      "variant": "level_up",
      "result": "alcremie decoration=flower cream=vanilla",
      "consumeHeldItem": true,
      "learnableMoves": [
        "decorate"
      ],
      "requirements": [
        {
          "variant": "level",
          "minLevel": 1
        },
        {
          "variant": "held_item",
          "itemCondition": "cobblemon:flower_sweet"
        },
        {
          "variant": "time_range",
          "range": "day"
        }
      ]
    },
    {
      "id": "milcery_alcremie_star_shiny",
      "variant": "level_up",
      "result": "alcremie s decoration=star",
      "consumeHeldItem": true,
      "learnableMoves": [
        "decorate"
      ],
      "requirements": [
        {
          "variant": "properties",
          "target": "shiny"
        },
        {
          "variant": "level",
          "minLevel": 1
        },
        {
          "variant": "held_item",
          "itemCondition": "cobblemon:star_sweet"
        }
      ]
    },
    {
      "id": "milcery_alcremie_star_caramelswirl",
      "variant": "level_up",
      "result": "alcremie decoration=star cream=caramel_swirl",
      "consumeHeldItem": false,
      "learnableMoves": [
        "decorate"
      ],
      "requirements": [
        {
          "variant": "level",
          "minLevel": 1
        },
        {
          "variant": "held_item",
          "itemCondition": "cobblemon:star_sweet"
        },
        {
          "variant": "time_range",
          "range": "day"
        }
      ]
    },
    {
      "id": "milcery_alcremie_star_lemon",
      "variant": "level_up",
      "result": "alcremie decoration=star cream=lemon",
      "consumeHeldItem": false,
      "learnableMoves": [
        "decorate"
      ],
      "requirements": [
        {
          "variant": "level",
          "minLevel": 1
        },
        {
          "variant": "held_item",
          "itemCondition": "cobblemon:star_sweet"
        },
        {
          "variant": "time_range",
          "range": "night"
        }
      ]
    },
    {
      "id": "milcery_alcremie_star_matcha",
      "variant": "level_up",
      "result": "alcremie decoration=star cream=matcha",
      "consumeHeldItem": false,
      "learnableMoves": [
        "decorate"
      ],
      "requirements": [
        {
          "variant": "level",
          "minLevel": 1
        },
        {
          "variant": "held_item",
          "itemCondition": "cobblemon:star_sweet"
        },
        {
          "variant": "time_range",
          "range": "night"
        }
      ]
    },
    {
      "id": "milcery_alcremie_star_mint",
      "variant": "level_up",
      "result": "alcremie decoration=star cream=mint",
      "consumeHeldItem": false,
      "learnableMoves": [
        "decorate"
      ],
      "requirements": [
        {
          "variant": "level",
          "minLevel": 1
        },
        {
          "variant": "held_item",
          "itemCondition": "cobblemon:star_sweet"
        },
        {
          "variant": "time_range",
          "range": "night"
        }
      ]
    },
    {
      "id": "milcery_alcremie_star_rainbowswirl",
      "variant": "level_up",
      "result": "alcremie decoration=star cream=rainbow_swirl",
      "consumeHeldItem": true,
      "learnableMoves": [
        "decorate"
      ],
      "requirements": [
        {
          "variant": "level",
          "minLevel": 1
        },
        {
          "variant": "held_item",
          "itemCondition": "cobblemon:star_sweet"
        },
        {
          "variant": "time_range",
          "range": "dusk"
        }
      ]
    },
    {
      "id": "milcery_alcremie_star_ruby",
      "variant": "level_up",
      "result": "alcremie decoration=star cream=ruby",
      "consumeHeldItem": false,
      "learnableMoves": [
        "decorate"
      ],
      "requirements": [
        {
          "variant": "level",
          "minLevel": 1
        },
        {
          "variant": "held_item",
          "itemCondition": "cobblemon:star_sweet"
        },
        {
          "variant": "time_range",
          "range": "day"
        }
      ]
    },
    {
      "id": "milcery_alcremie_star_rubyswirl",
      "variant": "level_up",
      "result": "alcremie decoration=star cream=ruby_swirl",
      "consumeHeldItem": false,
      "learnableMoves": [
        "decorate"
      ],
      "requirements": [
        {
          "variant": "level",
          "minLevel": 1
        },
        {
          "variant": "held_item",
          "itemCondition": "cobblemon:star_sweet"
        },
        {
          "variant": "time_range",
          "range": "day"
        }
      ]
    },
    {
      "id": "milcery_alcremie_star_salted",
      "variant": "level_up",
      "result": "alcremie decoration=star cream=salted",
      "consumeHeldItem": true,
      "learnableMoves": [
        "decorate"
      ],
      "requirements": [
        {
          "variant": "level",
          "minLevel": 1
        },
        {
          "variant": "held_item",
          "itemCondition": "cobblemon:star_sweet"
        },
        {
          "variant": "time_range",
          "range": "night"
        }
      ]
    },
    {
      "id": "milcery_alcremie_star_vanilla",
      "variant": "level_up",
      "result": "alcremie decoration=star cream=vanilla",
      "consumeHeldItem": true,
      "learnableMoves": [
        "decorate"
      ],
      "requirements": [
        {
          "variant": "level",
          "minLevel": 1
        },
        {
          "variant": "held_item",
          "itemCondition": "cobblemon:star_sweet"
        },
        {
          "variant": "time_range",
          "range": "day"
        }
      ]
    },
    {
      "id": "milcery_alcremie_ribbon_shiny",
      "variant": "level_up",
      "result": "alcremie s decoration=ribbon",
      "consumeHeldItem": true,
      "learnableMoves": [
        "decorate"
      ],
      "requirements": [
        {
          "variant": "properties",
          "target": "shiny"
        },
        {
          "variant": "level",
          "minLevel": 1
        },
        {
          "variant": "held_item",
          "itemCondition": "cobblemon:ribbon_sweet"
        }
      ]
    },
    {
      "id": "milcery_alcremie_ribbon_caramelswirl",
      "variant": "level_up",
      "result": "alcremie decoration=ribbon cream=caramel_swirl",
      "consumeHeldItem": false,
      "learnableMoves": [
        "decorate"
      ],
      "requirements": [
        {
          "variant": "level",
          "minLevel": 1
        },
        {
          "variant": "held_item",
          "itemCondition": "cobblemon:ribbon_sweet"
        },
        {
          "variant": "time_range",
          "range": "day"
        }
      ]
    },
    {
      "id": "milcery_alcremie_ribbon_lemon",
      "variant": "level_up",
      "result": "alcremie decoration=ribbon cream=lemon",
      "consumeHeldItem": false,
      "learnableMoves": [
        "decorate"
      ],
      "requirements": [
        {
          "variant": "level",
          "minLevel": 1
        },
        {
          "variant": "held_item",
          "itemCondition": "cobblemon:ribbon_sweet"
        },
        {
          "variant": "time_range",
          "range": "night"
        }
      ]
    },
    {
      "id": "milcery_alcremie_ribbon_matcha",
      "variant": "level_up",
      "result": "alcremie decoration=ribbon cream=matcha",
      "consumeHeldItem": false,
      "learnableMoves": [
        "decorate"
      ],
      "requirements": [
        {
          "variant": "level",
          "minLevel": 1
        },
        {
          "variant": "held_item",
          "itemCondition": "cobblemon:ribbon_sweet"
        },
        {
          "variant": "time_range",
          "range": "night"
        }
      ]
    },
    {
      "id": "milcery_alcremie_ribbon_mint",
      "variant": "level_up",
      "result": "alcremie decoration=ribbon cream=mint",
      "consumeHeldItem": false,
      "learnableMoves": [
        "decorate"
      ],
      "requirements": [
        {
          "variant": "level",
          "minLevel": 1
        },
        {
          "variant": "held_item",
          "itemCondition": "cobblemon:ribbon_sweet"
        },
        {
          "variant": "time_range",
          "range": "night"
        }
      ]
    },
    {
      "id": "milcery_alcremie_ribbon_rainbowswirl",
      "variant": "level_up",
      "result": "alcremie decoration=ribbon cream=rainbow_swirl",
      "consumeHeldItem": true,
      "learnableMoves": [
        "decorate"
      ],
      "requirements": [
        {
          "variant": "level",
          "minLevel": 1
        },
        {
          "variant": "held_item",
          "itemCondition": "cobblemon:ribbon_sweet"
        },
        {
          "variant": "time_range",
          "range": "dusk"
        }
      ]
    },
    {
      "id": "milcery_alcremie_ribbon_ruby",
      "variant": "level_up",
      "result": "alcremie decoration=ribbon cream=ruby",
      "consumeHeldItem": false,
      "learnableMoves": [
        "decorate"
      ],
      "requirements": [
        {
          "variant": "level",
          "minLevel": 1
        },
        {
          "variant": "held_item",
          "itemCondition": "cobblemon:ribbon_sweet"
        },
        {
          "variant": "time_range",
          "range": "day"
        }
      ]
    },
    {
      "id": "milcery_alcremie_ribbon_rubyswirl",
      "variant": "level_up",
      "result": "alcremie decoration=ribbon cream=ruby_swirl",
      "consumeHeldItem": false,
      "learnableMoves": [
        "decorate"
      ],
      "requirements": [
        {
          "variant": "level",
          "minLevel": 1
        },
        {
          "variant": "held_item",
          "itemCondition": "cobblemon:ribbon_sweet"
        },
        {
          "variant": "time_range",
          "range": "day"
        }
      ]
    },
    {
      "id": "milcery_alcremie_ribbon_salted",
      "variant": "level_up",
      "result": "alcremie decoration=ribbon cream=salted",
      "consumeHeldItem": true,
      "learnableMoves": [
        "decorate"
      ],
      "requirements": [
        {
          "variant": "level",
          "minLevel": 1
        },
        {
          "variant": "held_item",
          "itemCondition": "cobblemon:ribbon_sweet"
        },
        {
          "variant": "time_range",
          "range": "night"
        }
      ]
    },
    {
      "id": "milcery_alcremie_ribbon_vanilla",
      "variant": "level_up",
      "result": "alcremie decoration=ribbon cream=vanilla",
      "consumeHeldItem": true,
      "learnableMoves": [
        "decorate"
      ],
      "requirements": [
        {
          "variant": "level",
          "minLevel": 1
        },
        {
          "variant": "held_item",
          "itemCondition": "cobblemon:ribbon_sweet"
        },
        {
          "variant": "time_range",
          "range": "day"
        }
      ]
    }
  ],
  "baseScale": 0.5,
  "hitbox": {
    "width": 0.5,
    "height": 0.5,
    "fixed": false
  },
  "baseFriendship": 50,
  "evYield": {
    "hp": 0,
    "attack": 0,
    "defence": 0,
    "special_attack": 0,
    "special_defence": 1,
    "speed": 0
  },
  "height": 2,
  "weight": 3,
  "aspects": [],
  "cannotDynamax": false
}