{
    "enabled": "true",
    "neededInstalledMods": [],
    "neededUninstalledMods": [],
    "spawns": [
        {
            "id": "milcery-1",
            "pokemon": "milcery",
            "type": "pokemon",
            "context": "grounded",
            "bucket": "uncommon",
            "level": "5-27",
            "weight": 9.0,
            "condition": {
                "biomes": [
                    "#cobblemon:is_overworld"
                ],
                "neededNearbyBlocks": [
                    "minecraft:cake"
                ]
            }
        }
    ]
}