{
  "implemented": true,
  "name": "Tauros",
  "nationalPokedexNumber": 128,
  "primaryType": "normal",
  "abilities": [
    "intimidate",
    "angerpoint",
    "h:sheerforce"
  ],
  "baseStats": {
    "hp": 75,
    "attack": 100,
    "defence": 95,
    "special_attack": 40,
    "special_defence": 70,
    "speed": 110
  },
  "catchRate": 45,
  "maleRatio": 1,
  "shoulderMountable": false,
  "forms": [
    {
      "name": "Paldea-Combat",
      "primaryType": "fighting",
      "abilities": [
        "intimidate",
        "angerpoint",
        "h:cudchew"
      ],
      "baseStats": {
        "hp": 75,
        "attack": 110,
        "defence": 105,
        "special_attack": 30,
        "special_defence": 70,
        "speed": 100
      },
      "catchRate": 45,
      "maleRatio": 1,
      "baseExperienceYield": 0,
      "baseFriendship": 50,
      "evYield": {
        "hp": 0,
        "attack": 2,
        "defence": 0,
        "special_attack": 0,
        "special_defence": 0,
        "speed": 0
      },
      "experienceGroup": "slow",
      "eggCycles": 20,
      "eggGroups": [
        "field"
      ],
      "moves": [
        "1:tackle",
        "1:tailwhip",
        "5:workup",
        "10:doublekick",
        "15:assurance",
        "20:headbutt",
        "25:scaryface",
        "30:zenheadbutt",
        "35:ragingbull",
        "40:rest",
        "45:swagger",
        "50:thrash",
        "55:doubleedge",
        "60:closecombat",
        "egg:curse",
        "egg:endeavor",
        "tm:bodypress",
        "tm:bodyslam",
        "tm:bulkup",
        "tm:bulldoze",
        "tm:closecombat",
        "tm:dig",
        "tm:drillrun",
        "tm:earthquake",
        "tm:endure",
        "tm:facade",
        "tm:gigaimpact",
        "tm:hyperbeam",
        "tm:ironhead",
        "tm:outrage",
        "tm:protect",
        "tm:raindance",
        "tm:rest",
        "tm:reversal",
        "tm:rockslide",
        "tm:rocktomb",
        "tm:sandstorm",
        "tm:scaryface",
        "tm:sleeptalk",
        "tm:smartstrike",
        "tm:stompingtantrum",
        "tm:stoneedge",
        "tm:substitute",
        "tm:sunnyday",
        "tm:surf",
        "tm:takedown",
        "tm:terablast",
        "tm:thief",
        "tm:trailblaze",
        "tm:wildcharge",
        "tm:zenheadbutt"
      ],
      "labels": [
        "gen9",
        "paldea_regional"
      ],
      "aspects": [
        "paldean-breed-combat"
      ],
      "height": 14,
      "weight": 884,
      "evolutions": [],
      "cannotDynamax": false,
      "battleOnly": false
    },
    {
      "name": "Paldea-Blaze",
      "primaryType": "fighting",
      "secondaryType": "fire",
      "abilities": [
        "intimidate",
        "angerpoint",
        "h:cudchew"
      ],
      "baseStats": {
        "hp": 75,
        "attack": 110,
        "defence": 105,
        "special_attack": 30,
        "special_defence": 70,
        "speed": 100
      },
      "catchRate": 45,
      "maleRatio": 1,
      "baseExperienceYield": 0,
      "baseFriendship": 50,
      "evYield": {
        "hp": 0,
        "attack": 2,
        "defence": 0,
        "special_attack": 0,
        "special_defence": 0,
        "speed": 0
      },
      "experienceGroup": "slow",
      "eggCycles": 20,
      "eggGroups": [
        "field"
      ],
      "moves": [
        "1:tackle",
        "1:tailwhip",
        "5:workup",
        "10:doublekick",
        "15:flamecharge",
        "20:headbutt",
        "25:scaryface",
        "30:zenheadbutt",
        "35:ragingbull",
        "40:rest",
        "45:swagger",
        "50:thrash",
        "55:flareblitz",
        "60:closecombat",
        "egg:curse",
        "egg:endeavor",
        "tm:bodypress",
        "tm:bodyslam",
        "tm:bulkup",
        "tm:bulldoze",
        "tm:closecombat",
        "tm:dig",
        "tm:drillrun",
        "tm:earthquake",
        "tm:endure",
        "tm:facade",
        "tm:fireblast",
        "tm:firespin",
        "tm:flamecharge",
        "tm:flamethrower",
        "tm:flareblitz",
        "tm:gigaimpact",
        "tm:hyperbeam",
        "tm:ironhead",
        "tm:outrage",
        "tm:overheat",
        "tm:protect",
        "tm:raindance",
        "tm:rest",
        "tm:reversal",
        "tm:rockslide",
        "tm:rocktomb",
        "tm:sandstorm",
        "tm:scaryface",
        "tm:sleeptalk",
        "tm:smartstrike",
        "tm:stompingtantrum",
        "tm:stoneedge",
        "tm:substitute",
        "tm:sunnyday",
        "tm:takedown",
        "tm:terablast",
        "tm:thief",
        "tm:trailblaze",
        "tm:wildcharge",
        "tm:willowisp",
        "tm:zenheadbutt"
      ],
      "labels": [
        "gen9",
        "paldea_regional"
      ],
      "aspects": [
        "paldean-breed-blaze"
      ],
      "height": 14,
      "weight": 884,
      "evolutions": [],
      "cannotDynamax": false,
      "battleOnly": false
    },
    {
      "name": "Paldea-Aqua",
      "primaryType": "fighting",
      "secondaryType": "water",
      "abilities": [
        "intimidate",
        "angerpoint",
        "h:cudchew"
      ],
      "baseStats": {
        "hp": 75,
        "attack": 110,
        "defence": 105,
        "special_attack": 30,
        "special_defence": 70,
        "speed": 100
      },
      "catchRate": 45,
      "maleRatio": 1,
      "baseExperienceYield": 0,
      "baseFriendship": 50,
      "evYield": {
        "hp": 0,
        "attack": 2,
        "defence": 0,
        "special_attack": 0,
        "special_defence": 0,
        "speed": 0
      },
      "experienceGroup": "slow",
      "eggCycles": 20,
      "eggGroups": [
        "field"
      ],
      "moves": [
        "1:tackle",
        "1:tailwhip",
        "5:workup",
        "10:doublekick",
        "15:aquajet",
        "20:headbutt",
        "25:scaryface",
        "30:zenheadbutt",
        "35:ragingbull",
        "40:rest",
        "45:swagger",
        "50:thrash",
        "55:wavecrash",
        "60:closecombat",
        "egg:curse",
        "egg:endeavor",
        "tm:bodypress",
        "tm:bodyslam",
        "tm:bulkup",
        "tm:bulldoze",
        "tm:chillingwater",
        "tm:closecombat",
        "tm:dig",
        "tm:drillrun",
        "tm:earthquake",
        "tm:endure",
        "tm:facade",
        "tm:gigaimpact",
        "tm:hydropump",
        "tm:hyperbeam",
        "tm:ironhead",
        "tm:liquidation",
        "tm:outrage",
        "tm:protect",
        "tm:raindance",
        "tm:rest",
        "tm:reversal",
        "tm:rockslide",
        "tm:rocktomb",
        "tm:sandstorm",
        "tm:scaryface",
        "tm:sleeptalk",
        "tm:smartstrike",
        "tm:stompingtantrum",
        "tm:stoneedge",
        "tm:substitute",
        "tm:surf",
        "tm:takedown",
        "tm:terablast",
        "tm:thief",
        "tm:trailblaze",
        "tm:waterpulse",
        "tm:wildcharge",
        "tm:zenheadbutt"
      ],
      "labels": [
        "gen9",
        "paldea_regional"
      ],
      "aspects": [
        "paldean-breed-aqua"
      ],
      "height": 14,
      "weight": 884,
      "evolutions": [],
      "cannotDynamax": false,
      "battleOnly": false
    }
  ],
  "baseExperienceYield": 172,
  "experienceGroup": "slow",
  "eggCycles": 20,
  "eggGroups": [
    "field"
  ],
  "drops": {
    "amount": "2",
    "entries": [
      {
        "item": "minecraft:leather",
        "quantityRange": "1-3"
      },
      {
        "item": "minecraft:beef",
        "quantityRange": "2-4"
      }
    ]
  },
  "moves": [
    "1:tackle",
    "1:tailwhip",
    "5:workup",
    "10:payback",
    "15:assurance",
    "15:pursuit",
    "20:hornattack",
    "25:scaryface",
    "30:zenheadbutt",
    "35:ragingbull",
    "40:rest",
    "45:swagger",
    "50:thrash",
    "55:doubleedge",
    "60:gigaimpact",
    "egg:curse",
    "egg:endeavor",
    "tm:attract",
    "tm:blizzard",
    "tm:bodyslam",
    "tm:bulldoze",
    "tm:captivate",
    "tm:closecombat",
    "tm:confide",
    "tm:dig",
    "tm:doubleteam",
    "tm:earthquake",
    "tm:endure",
    "tm:facade",
    "tm:fireblast",
    "tm:flamethrower",
    "tm:frustration",
    "tm:gigaimpact",
    "tm:helpinghand",
    "tm:hiddenpower",
    "tm:highhorsepower",
    "tm:hyperbeam",
    "tm:icebeam",
    "tm:icywind",
    "tm:incinerate",
    "tm:ironhead",
    "tm:irontail",
    "tm:megahorn",
    "tm:naturalgift",
    "tm:outrage",
    "tm:protect",
    "tm:raindance",
    "tm:rest",
    "tm:retaliate",
    "tm:return",
    "tm:revenge",
    "tm:reversal",
    "tm:rockslide",
    "tm:rocktomb",
    "tm:round",
    "tm:sandstorm",
    "tm:scaryface",
    "tm:secretpower",
    "tm:shadowball",
    "tm:sleeptalk",
    "tm:smartstrike",
    "tm:snore",
    "tm:solarbeam",
    "tm:stompingtantrum",
    "tm:stoneedge",
    "tm:substitute",
    "tm:sunnyday",
    "tm:surf",
    "tm:takedown",
    "tm:terablast",
    "tm:thief",
    "tm:throatchop",
    "tm:thunder",
    "tm:thunderbolt",
    "tm:trailblaze",
    "tm:uproar",
    "tm:whirlpool",
    "tm:wildcharge",
    "tm:zenheadbutt",
    "tutor:bide",
    "tutor:doubleteam",
    "tutor:fissure",
    "tutor:focusenergy",
    "tutor:frustration",
    "tutor:headbutt",
    "tutor:hiddenpower",
    "tutor:horndrill",
    "tutor:irontail",
    "tutor:lashout",
    "tutor:leer",
    "tutor:mimic",
    "tutor:pursuit",
    "tutor:rage",
    "tutor:refresh",
    "tutor:return",
    "tutor:rockclimb",
    "tutor:rocksmash",
    "tutor:roleplay",
    "tutor:shockwave",
    "tutor:skullbash",
    "tutor:spite",
    "tutor:stomp",
    "tutor:strength",
    "tutor:toxic",
    "tutor:waterpulse",
    "tutor:zapcannon"
  ],
  "labels": [
    "gen1",
    "kanto_regional",
    "kanto_regional",
    "kanto_regional"
  ],
  "pokedex": [
    "cobblemon.species.tauros.desc"
  ],
  "evolutions": [],
  "baseScale": 1.3,
  "hitbox": {
    "width": 1.3,
    "height": 1.4,
    "fixed": false
  },
  "baseFriendship": 50,
  "evYield": {
    "hp": 0,
    "attack": 1,
    "defence": 0,
    "special_attack": 0,
    "special_defence": 0,
    "speed": 1
  },
  "height": 14,
  "weight": 884,
  "aspects": [],
  "cannotDynamax": false
}